<?xml version="1.0" encoding="utf-8"?>
<!-- Generator: Adobe Illustrator 24.2.3, SVG Export Plug-In . SVG Version: 6.00 Build 0)  -->
<svg version="1.1" id="Layer_1" xmlns="http://www.w3.org/2000/svg" xmlns:xlink="http://www.w3.org/1999/xlink" x="0px" y="0px"
	 viewBox="0 0 500 500" style="enable-background:new 0 0 500 500;" xml:space="preserve">
<style type="text/css">
	.st0{fill:#FFFFFF;}
	.st1{fill:#FF1E2F;}
</style>
<circle id="Ellipse_41" class="st0" cx="250" cy="250" r="242.5"/>
<path id="Path_486" class="st1" d="M328.97,145H176.51c-17.38,0.05-31.46,14.13-31.51,31.51v152.46
	c0.27,17.22,14.28,31.06,31.51,31.11h152.46c17.07-0.27,30.84-14.04,31.11-31.11V176.51C360.03,159.29,346.2,145.27,328.97,145z
	 M253.19,309.13c-31.39,0-56.84-25.45-56.84-56.84s25.45-56.84,56.84-56.84s56.84,25.45,56.84,56.84l0,0l0,0
	C310.03,283.68,284.58,309.13,253.19,309.13z M316.31,208.12c-10.46,0-18.95-8.48-18.95-18.95c0-10.46,8.48-18.95,18.95-18.95
	c10.46,0,18.95,8.48,18.95,18.95S326.77,208.12,316.31,208.12z"/>
</svg>
