<?xml version="1.0" encoding="utf-8"?>
<svg xmlns="http://www.w3.org/2000/svg" viewBox="0 0 308.49 308.49">
    <g id="Capa_17" data-name="Capa 17">
        <g id="Group_118" data-name="Group 118">
            <g id="Group_29" data-name="Group 29">
                <path id="Path_184" data-name="Path 184" class="cls-1" d="M157.06,226.92,277.63,106.3a7.26,7.26,0,0,0-10.27-10.25L151.88,211.53,36.45,96.11A7.21,7.21,0,0,0,26.26,96l-.07.07A7.25,7.25,0,0,0,24,101.19a7,7,0,0,0,2.17,5.11L146.88,226.86a7.11,7.11,0,0,0,10.06.18Z"/>
                <path class="cls-1" d="M152,234h-.23a12,12,0,0,1-8.5-3.71L22.71,109.87a12.06,12.06,0,0,1,0-17.32A12.24,12.24,0,0,1,40,92.6L151.88,204.46l112-111.95.12-.12a12.26,12.26,0,0,1,17.34,17.31l-.13.13L160.6,230.46h0l-.17.16A12,12,0,0,1,152,234Zm5.05-7.12h0ZM29.78,99.59l-.06.06a2.21,2.21,0,0,0-.69,1.6,2,2,0,0,0,.62,1.43l.09.08L150.41,223.32A2.18,2.18,0,0,0,152,224a2.15,2.15,0,0,0,1.51-.6l.06-.05L274,102.84a2.26,2.26,0,0,0-3.19-3.18L155.41,215.07a5,5,0,0,1-7.07,0L32.92,99.65A2.23,2.23,0,0,0,29.78,99.59Z"/>
            </g>
        </g>
    </g>
</svg>
