<?xml version="1.0" encoding="utf-8"?>
<svg xmlns="http://www.w3.org/2000/svg" viewBox="0 0 500 500">
    <g id="Capa_17" data-name="Capa 17">
        <path class="cls-1" d="M243.18,396.83A101.62,101.62,0,0,1,141.67,295.32a10,10,0,0,1,20,0,81.51,81.51,0,1,0,163,0,10,10,0,0,1,20,0A101.63,101.63,0,0,1,243.18,396.83Z"/>
        <path class="cls-1" d="M334.69,204.85a10,10,0,0,1-10-10,81.51,81.51,0,1,0-163,0,10,10,0,0,1-20,0,101.51,101.51,0,1,1,203,0A10,10,0,0,1,334.69,204.85Z"/>
        <path class="cls-1" d="M334.69,305.32a10,10,0,0,1-10-10c0-8.12-1.94-12.09-21.44-18.75L176.59,232.51c-18.36-6.18-34.92-13.74-34.92-37.66a10,10,0,0,1,20,0c0,8.19,1.93,12.18,21.4,18.74l126.7,44.07c17.64,6,34.92,13.91,34.92,37.66A10,10,0,0,1,334.69,305.32Z"/>
        <path class="cls-1" d="M243.18,113.34a10,10,0,0,1-10-10V60.87a10,10,0,0,1,20,0v42.47A10,10,0,0,1,243.18,113.34Z"/>
        <path class="cls-1" d="M242.9,446.28a10,10,0,0,1-10-10V418.13a10,10,0,0,1,20,0v18.15A10,10,0,0,1,242.9,446.28Z"/>
    </g>
</svg>
