<?xml version="1.0" encoding="utf-8"?>
<!-- Generator: Adobe Illustrator 24.0.1, SVG Export Plug-In . SVG Version: 6.00 Build 0)  -->
<svg version="1.1" id="Layer_1" xmlns="http://www.w3.org/2000/svg" xmlns:xlink="http://www.w3.org/1999/xlink" x="0px" y="0px"
	 viewBox="0 0 370 370" style="enable-background:new 0 0 370 370;" xml:space="preserve">
<g>
	<path d="M301.7,99.8l0-0.1c0,0,0,0,0,0l-0.5-1.6l-4.3-13.3l-4.1-12.7c-0.4-1.4-1.9-2.1-3.3-1.7c-1.3,0.4-2.1,1.8-1.7,3.1l-0.1,0
		L291,84l1.1,3.4l0,0l0.1,0.3l0,0l4.5,13.7c0.4,1.4,1.9,2.1,3.3,1.7C301.2,102.6,302,101.2,301.7,99.8L301.7,99.8z"/>
	<path d="M334.7,68.9c4-10.7,2.5-22.6-3.9-32c-6.1-9.1-16.3-14.4-27.2-14.4l-0.1,0c-13.8,0.1-26.4,8.9-31.2,21.9l-8.8,23.4l-1.6,4.4
		l-3.3-3.3l-10.4-10.4l-0.9-0.9v-1.2V36.3c0-1.4-1.2-2.6-2.6-2.6h-61.6c-1.4,0-2.6,1.2-2.6,2.6v9.6v6.8l-5-4.5
		c-2.7-2.4-6.1-3.8-9.7-3.8c-3.3,0-6.4,1.1-9,3.1l-4.9,3.8v-6.2v-8.8c0-7.5-6.1-13.6-13.6-13.6c-7.5,0-13.6,6.1-13.6,13.6v8.8v6.4
		l-4.9-4.1c-2.5-2.1-5.7-3.2-9-3.2h-0.1c-3.8,0-7.5,1.6-10.1,4.3c-5.5,5.7-5.6,14.7-0.1,20.5l5.2,5.4l3,3l-3.9,1.8
		c-1.6,0.7-3,1.7-4.2,2.9l-0.3,0.3l0,0c-1,1.1-1.8,2.3-2.4,3.6l-2.5,5.3l-1.1-2l0,0l-6.8-12.7c-0.7-1.3-2.3-1.7-3.5-1.1
		c-1.3,0.7-1.7,2.3-1.1,3.5l0.2,0.3l0,0l3.5,6.5l3.2,5.8l0,0l6.4,11.8l1.4,2.6l-2.6,1.5l-0.3,0.1c-0.5,0.3-1,0.6-1.4,0.9
		c-0.1,0-0.1,0.1-0.2,0.1c-0.1,0.1-0.3,0.2-0.4,0.3l-2,1.4l-1.8-1.6l-10-9.2l0,0l-10.6-9.8c-1.1-1-2.7-0.9-3.7,0.1
		c-1,1.1-0.9,2.7,0.1,3.7l1.1,1l0,0l19.3,17.8l1.9,1.7l-1.4,2.1c-2.2,3.4-3.7,7.3-4.2,11.3c-1.1,7.7,1.2,15.5,6.2,21.5l0,0l0,0
		l8.1,10.1l0.7,0.8v1v90.6h5.2V170v-5.6l4.7,3.1l8.1,5.4c0.4,0.3,0.9,0.4,1.4,0.4s1-0.2,1.4-0.4l13.7-9.1l1.7-1.1l1.7,1.1l13.7,9.1
		c0.4,0.3,0.9,0.4,1.4,0.4c0.5,0,1-0.2,1.4-0.4l13.7-9.1l1.7-1.1l1.7,1.1l13.7,9.1c0.4,0.3,0.9,0.4,1.4,0.4s1-0.2,1.4-0.4l13.7-9.1
		l1.7-1.1l1.7,1.1l13.7,9.1c0.4,0.3,0.9,0.4,1.4,0.4c0.5,0,1-0.2,1.4-0.4l13.7-9.1l1.7-1.1l1.7,1.1l11.2,7.5l1.3,0.9v1.6v170.6v3h-3
		H124.5v0c-1.4,0-2.6,1.2-2.6,2.6v0.1c0,1.4,1.2,2.6,2.6,2.6h36.1c0.1,0,0.2,0,0.3,0h117.4c13.8,0,25-11.2,25-25v-168
		c0-0.5-0.2-1.1-0.6-1.5l-1.1-1.3l0.6-1.6L334.7,68.9z M185.7,53.1V41.9v-3h3h50.4h3v3v11.2v3h-3h-50.4h-3V53.1z M142.5,153.6
		c-0.3,1.2-0.6,2.4-0.8,3.6l-0.7,4.7l-3.9-2.6l-3-2c-0.4-0.3-0.9-0.4-1.4-0.4s-1,0.2-1.4,0.4l-13.7,9.1l-1.7,1.1l-1.7-1.1l-12.4-8.3
		l-0.4-0.3l-0.3-0.4l-1.2-1.5l-1.9-2.4l2.4-1.9l12.1-9.3l0,0l0.6-0.5c1.1-0.9,1.3-2.5,0.5-3.7c-0.9-1.1-2.5-1.3-3.7-0.5l-11.4,8.8
		l0,0l-1.5,1.1l-2.3,1.8l-1.8-2.3l-1.2-1.5c-4.1-4.8-5.9-11.2-5.1-17.5c0.8-6.3,4.3-11.9,9.6-15.4c3.6-2.5,7.9-3.8,12.3-3.8
		c1.8,0,3.7,0.2,5.5,0.7c6.1,1.6,11.2,5.7,14,11.3l0,0l0,0l14.3,30.4l0.5,1L142.5,153.6z M143.3,141.3l-10.6-22.5
		c-3.5-7-9.9-12.1-17.4-14.1c-1.8-0.5-3.6-0.7-5.4-0.8l-1.3-0.1l-0.8-1l-1.4-1.7c-0.5-0.6-1-1.2-1.4-1.6c-0.3-0.4-0.5-0.6-0.6-0.7
		c-2.1-2.2-3-5.3-2.4-8.3c0.3-1.7,1.1-3.3,2.3-4.6l0.1-0.1l0.1-0.1l0,0l0.1-0.1l0-0.1l0.1-0.1c1.7-1.7,3.9-2.6,6.3-2.6
		c1.8,0,3.5,0.5,5,1.5c0.4,0.3,0.9,0.4,1.4,0.4c0.8,0,1.5-0.3,2-0.9c0.9-1,0.8-2.5-0.1-3.5l-14.8-15.3c-3.5-3.7-3.5-9.5,0-13.2
		c1.7-1.7,4-2.7,6.4-2.7c2.4,0,4.8,1,6.4,2.7l8.2,8.4c0.5,0.5,1.2,0.8,1.9,0.8c0.3,0,0.7-0.1,1-0.2c1-0.4,1.6-1.4,1.6-2.4V36.4
		c-0.1-3.1,1.4-5.9,4.1-7.5c1.3-0.8,2.8-1.2,4.3-1.2c1.5,0,3,0.4,4.3,1.2c2.6,1.6,4.2,4.5,4.1,7.5v22.3c0,1.1,0.6,2,1.6,2.4
		c0.3,0.1,0.6,0.2,1,0.2c0.7,0,1.4-0.3,1.9-0.8l8.2-8.4l0,0l0,0c1.7-1.7,4-2.6,6.4-2.6c2.4,0,4.7,0.9,6.4,2.6l0,0l0,0
		c3.6,3.7,3.6,9.5,0,13.2L157.8,80l0.2,0.2l-2.1,2.1l-2.6,2.6c-0.2,0.2-0.3,0.4-0.5,0.7l0,0.1c0,0.1-0.1,0.2-0.1,0.3
		c-0.1,0.2-0.1,0.4-0.1,0.6c0,0.2,0,0.4-0.1,0.5v49.1v1.3l-0.9,0.9c-1.2,1.1-2.3,2.3-3.2,3.6l-3,3.9L143.3,141.3z M199.2,157
		c-0.3,0.1-0.5,0.2-0.7,0.3l-13.7,9.1l-1.7,1.1l-1.7-1.1l-13.7-9.1c-0.4-0.3-0.9-0.4-1.4-0.4s-1,0.2-1.4,0.4l-13.6,9l-4.4,2.9
		l-0.3-5.2c0-0.2,0-0.3,0-0.5c0-0.4-0.1-0.8-0.1-1.3c0-13.8,9.8-25.5,23.5-27.8c1.5-0.3,3.1-0.4,4.7-0.4c12,0,22.7,7.7,26.6,19.1
		l1,3.1L199.2,157z M214.1,92.3v67.9v5.6l-4.7-3.1l-0.1-0.1l-1.2-0.8l-0.1-1.5c-0.6-10.8-6.5-20.6-15.6-26.4
		c-5.3-3.3-11.4-5.1-17.7-5.1c-4.4,0-8.8,0.9-12.8,2.6l-4.2,1.7v-4.5V92.3v-3h3h50.4h3V92.3z M216.5,83.2l-0.9,0.9h-1.2h-45.8h-7.2
		l5.1-5.1l16.8-16.8l0.9-0.9h1.2h45.8h7.2l-5.1,5.1L216.5,83.2z M229.5,158.4l-0.3,0.9l-0.8,0.5l-4.3,2.9l-4.7,3.1v-5.6V89v-1.2
		l0.9-0.9l22.4-22.4l2.1-2.1l2.1,2.1l11.6,11.6l1.4,1.4l-0.7,1.8L229.5,158.4z M298.2,170v157.6c0,10.9-8.9,19.8-19.8,19.8h-22.4h-3
		v-3V173.7v-1.6l1.3-0.9l11.2-7.5l1.7-1.1l1.7,1.1l13.7,9.1c0.4,0.3,0.9,0.4,1.4,0.4s1-0.2,1.4-0.4l8.1-5.4l4.7-3.1V170z
		 M295.2,159.4l-0.3,0.9l-0.8,0.5l-8.4,5.6l-1.7,1.1l-1.7-1.1l-13.7-9.1c-0.4-0.3-0.9-0.4-1.4-0.4s-1,0.2-1.4,0.4l-13.7,9.1
		l-1.7,1.1l-1.7-1.1l-11.4-7.6l-2-1.3l0.8-2.2l41-109.1c4-10.9,14.6-18.4,26.3-18.5l0,0h0.1c9.2,0,17.8,4.6,23,12.2
		c5.5,7.9,6.7,18.1,3.3,27.2L295.2,159.4z"/>
	<path d="M97.8,268.9c-4.9,0-9.7,1.4-13.8,4l-4.6,2.9v-5.4v-4.5c0-9.7-7.1-17.7-16.4-19.2v0l-0.6,0c-1.4,0-2.6,1.2-2.6,2.6
		c0,1.4,1.2,2.6,2.6,2.6l0.6,0.1c6.4,1.4,11.1,7.1,11.1,13.9v4.5v5.4l-4.6-2.9c-4.2-2.6-8.9-4-13.9-4c-14.5,0-26.3,11.8-26.4,26.4
		c0,14.2,3.4,28.3,9.7,41l2,3.9c3.8,7.6,11.4,12.3,19.8,12.3l0.1,0c3.4,0,6.9-0.8,10-2.4l4.5-2.3l1.3-0.7l1.3,0.7l4.5,2.3
		c3.1,1.5,6.5,2.3,10,2.4l0.1,0c8.5,0,16.1-4.7,19.8-12.3l2-3.9c6.3-12.7,9.7-26.9,9.7-41C124.1,280.8,112.3,268.9,97.8,268.9z
		 M109.8,334l-2,3.9c-2.9,5.8-8.7,9.4-15.2,9.4l-0.1,0c-2.6,0-5.3-0.6-7.6-1.8l-7.1-3.5c-0.4-0.2-0.8-0.3-1.2-0.3
		c-0.4,0-0.8,0.1-1.2,0.3l-7,3.5c-2.4,1.2-5,1.8-7.6,1.8h0h0c-6.5,0-12.3-3.6-15.2-9.4l-2-3.9c-6-11.9-9.1-25.3-9.1-38.7
		c0-11.7,9.5-21.2,21.2-21.2h0.1c5.6,0,11,2.3,14.9,6.2l4.2,4.2c0.5,0.5,1.1,0.8,1.8,0.8c0.7,0,1.3-0.3,1.8-0.8l4.2-4.2
		c4-4,9.3-6.2,15-6.2c2.8,0,5.5,0.5,8.1,1.6c7.9,3.3,13.1,11,13.1,19.6C118.9,308.7,115.8,322,109.8,334z"/>
	<path d="M280.8,125.4L280.8,125.4l-4.7-14.3l0,0c-0.5-1.2-1.9-1.9-3.2-1.5c-1.4,0.4-2.1,1.9-1.7,3.3l4.4,13.6l0,0l0.1,0.4l0,0
		l4.5,13.7c0.4,1.4,1.9,2.1,3.3,1.7c1.4-0.4,2.1-1.9,1.7-3.3L280.8,125.4z"/>
</g>
</svg>
