<?xml version="1.0" encoding="utf-8"?>
<!-- Generator: Adobe Illustrator 24.2.3, SVG Export Plug-In . SVG Version: 6.00 Build 0)  -->
<svg version="1.1" id="Layer_1" xmlns="http://www.w3.org/2000/svg" xmlns:xlink="http://www.w3.org/1999/xlink" x="0px" y="0px"
	 viewBox="0 0 500 500" style="enable-background:new 0 0 500 500;" xml:space="preserve">
<style type="text/css">
	.st0{fill:#FFFFFF;}
</style>
<g id="Group_345" transform="translate(-4898.402 3185.339)">
	<path id="Path_435" class="st0" d="M5274.75-3004.13c1.06,0,2.1-0.39,2.89-1.09l62.21-54.43c1.83-1.59,2.01-4.37,0.42-6.2
		c0,0,0,0,0,0c-1.59-1.83-4.37-2.02-6.2-0.43c0,0,0,0.01-0.01,0.01l-62.21,54.43c-1.83,1.6-2.02,4.38-0.42,6.21
		C5272.28-3004.68,5273.49-3004.13,5274.75-3004.13z"/>
	<path id="Path_436" class="st0" d="M5278.34-2898.09c-1.82-1.6-4.6-1.42-6.21,0.41c-1.6,1.83-1.42,4.6,0.41,6.21l62.22,54.43
		c0.8,0.7,1.83,1.09,2.89,1.09c1.27,0,2.47-0.55,3.3-1.51c1.6-1.82,1.42-4.6-0.4-6.2c0,0,0-0.01-0.01-0.01L5278.34-2898.09z"/>
	<path id="Path_437" class="st0" d="M5375.86-2956.53h-82.22c-2.42,0-4.39,1.97-4.39,4.39c0,0,0,0.01,0,0.01
		c0,2.43,1.97,4.39,4.39,4.39h82.22c2.42,0,4.39-1.96,4.39-4.39C5380.26-2954.56,5378.29-2956.53,5375.86-2956.53
		C5375.87-2956.53,5375.87-2956.53,5375.86-2956.53z"/>
	<path id="Path_438" class="st0" d="M5274.82-2961.36c0.03-15.49-11.11-28.75-26.38-31.39l-1.56-0.27v-81.46
		c-0.02-17.59-14.28-31.85-31.87-31.86c-3.86,0.01-7.69,0.73-11.29,2.12l-0.16,0.06c-0.22,0.06-0.43,0.14-0.64,0.25l-0.12,0.06
		c-1.83,0.74-3.58,1.65-5.24,2.72l-128.45,67.79l-0.14,0.06c-6.45,2.75-11.48,8.03-13.92,14.6l-0.42,1.14l-84.13,6.08
		c-0.96,0.07-1.87,0.49-2.54,1.19l-0.3,0.31l-0.4,0.15c-6.52,2.42-11.78,7.38-14.57,13.75l-0.49,1.13h-5.59
		c-11.69,0.02-21.16,9.49-21.17,21.17v43.3c0.01,11.69,9.48,21.16,21.17,21.17h4.79l0.42,1.32c2.6,8.33,9.32,14.72,17.76,16.91
		l0.3,0.08l0.25,0.17c0.56,0.37,1.2,0.59,1.87,0.64l4.54,0.34v105.73c0.02,17.35,14.08,31.41,31.42,31.43
		c17.35-0.03,31.4-14.08,31.42-31.43v-81.53c0-2.17-1.77-3.93-3.94-3.93c-2.17,0-3.93,1.76-3.93,3.93v0v81.53
		c0,13.03-10.56,23.59-23.59,23.59l0,0c-13.03,0-23.59-10.56-23.59-23.59v0v-105.69c0.03-0.84,0.11-1.67,0.24-2.5l0.09-0.66
		c0.14-1.07-0.16-2.15-0.84-2.99c-0.67-0.83-1.66-1.35-2.72-1.44l-6.88-0.51l-0.33-0.16c-0.31-0.15-0.63-0.25-0.97-0.31
		c-7.55-1.36-13.35-7.44-14.35-15.05v-75.81l0.14-0.33c0.08-0.17,0.13-0.35,0.18-0.53c1.55-6.35,6.49-11.33,12.84-12.93
		c0.42-0.11,0.82-0.29,1.19-0.53l0.41-0.27l80.5-5.82v121.87c0.01,0.31,0.05,0.61,0.13,0.91c1.41,6.81,5.55,12.75,11.44,16.45
		l0.22,0.16c0.25,0.21,0.52,0.4,0.82,0.54l1.95,0.96c0.23,0.13,0.43,0.23,0.72,0.35l131.42,64.54l0.39,0.21
		c0.66,0.35,1.35,0.71,2.12,1.03l0.13,0.06c0.22,0.11,0.45,0.2,0.69,0.26l0.18,0.06c3.5,1.32,7.22,2.01,10.96,2.02
		c17.59-0.01,31.85-14.27,31.87-31.86v-78.45l1.56-0.27c15.26-2.64,26.41-15.9,26.38-31.39L5274.82-2961.36z M5242.93-2985.34
		c13.25,0.02,23.99,10.75,24,24v19.24c-0.01,13.25-10.76,23.99-24,24c-2.17,0-3.92,1.76-3.93,3.93v82.18
		c-0.01,13.25-10.76,23.99-24,24c-2.97-0.02-5.91-0.59-8.66-1.7l-0.32-0.11h-0.08c-0.43-0.19-0.86-0.42-1.35-0.67l-24.56-12.08
		v-260.37l21.29-11.23c0.12-0.06,0.24-0.13,0.36-0.21c1.3-0.86,2.68-1.6,4.13-2.2l0.34-0.12c2.81-1.15,5.83-1.75,8.86-1.76
		c13.25,0.02,23.99,10.75,24,24v85.2C5239.05-2987.06,5240.8-2985.35,5242.93-2985.34z M5172.17-3078.78v252.38l-99.79-48.99
		l-0.2-0.09l-0.17-0.09l-0.42-0.21l-0.91-0.43l-0.26-0.16l-0.32-0.21c-4.28-2.46-7.33-6.59-8.42-11.4v-0.2v-124.89v-0.4
		c1.25-5.63,5.15-10.32,10.46-12.57l0.34-0.16L5172.17-3078.78z M4950.73-2987.02v69.94h-4.15c-7.35-0.01-13.31-5.97-13.32-13.32
		v-43.3c0.01-7.35,5.97-13.31,13.32-13.32H4950.73z"/>
</g>
</svg>
