<?xml version="1.0" encoding="utf-8"?>
<svg xmlns="http://www.w3.org/2000/svg" viewBox="0 0 500 500">
    <g id="Capa_17" data-name="Capa 17">
        <path class="cls-1" d="M205.87,236.47H91.29a26.76,26.76,0,0,1-26.73-26.73V95.16A26.75,26.75,0,0,1,91.29,68.44H205.87A26.75,26.75,0,0,1,232.6,95.16V209.74A26.76,26.76,0,0,1,205.87,236.47ZM91.29,75.44A19.74,19.74,0,0,0,71.56,95.16V209.74a19.75,19.75,0,0,0,19.73,19.73H205.87a19.75,19.75,0,0,0,19.73-19.73V95.16a19.74,19.74,0,0,0-19.73-19.72Z"/>
        <path class="cls-1" d="M149.26,177.21A19.76,19.76,0,1,1,169,157.45,19.78,19.78,0,0,1,149.26,177.21Zm0-32.52A12.76,12.76,0,1,0,162,157.45,12.78,12.78,0,0,0,149.26,144.69Z"/>
        <path class="cls-1" d="M402.52,236.47H287.94a26.76,26.76,0,0,1-26.73-26.73V95.16a26.75,26.75,0,0,1,26.73-26.72H402.52a26.75,26.75,0,0,1,26.72,26.72V209.74A26.76,26.76,0,0,1,402.52,236.47Zm-114.58-161a19.74,19.74,0,0,0-19.73,19.72V209.74a19.75,19.75,0,0,0,19.73,19.73H402.52a19.75,19.75,0,0,0,19.72-19.73V95.16a19.74,19.74,0,0,0-19.72-19.72Z"/>
        <path class="cls-1" d="M402.52,430.79H287.94a26.76,26.76,0,0,1-26.73-26.73V289.48a26.76,26.76,0,0,1,26.73-26.72H402.52A26.59,26.59,0,0,1,429.13,287c.07.83.11,1.67.11,2.49v120a3.5,3.5,0,0,1-7,0v-120c0-.61,0-1.23-.08-1.85a19.62,19.62,0,0,0-19.64-17.87H287.94a19.75,19.75,0,0,0-19.73,19.72V404.06a19.75,19.75,0,0,0,19.73,19.73H402.52a3.5,3.5,0,0,1,0,7Z"/>
        <path class="cls-1" d="M345.9,177.21a19.76,19.76,0,1,1,19.76-19.76A19.77,19.77,0,0,1,345.9,177.21Zm0-32.52a12.76,12.76,0,1,0,12.76,12.76A12.77,12.77,0,0,0,345.9,144.69Z"/>
        <path class="cls-1" d="M205.87,428.47H91.29a26.76,26.76,0,0,1-26.73-26.73V287.16a26.75,26.75,0,0,1,26.73-26.72H205.87a26.75,26.75,0,0,1,26.73,26.72V401.74A26.76,26.76,0,0,1,205.87,428.47Zm-114.58-161a19.74,19.74,0,0,0-19.73,19.72V401.74a19.75,19.75,0,0,0,19.73,19.73H205.87a19.75,19.75,0,0,0,19.73-19.73V287.16a19.74,19.74,0,0,0-19.73-19.72Z"/>
        <path class="cls-1" d="M149.26,369.21A19.76,19.76,0,1,1,169,349.45,19.78,19.78,0,0,1,149.26,369.21Zm0-32.52A12.76,12.76,0,1,0,162,349.45,12.78,12.78,0,0,0,149.26,336.69Z"/>
    </g>
</svg>
