<?xml version="1.0" encoding="utf-8"?>
<!-- Generator: Adobe Illustrator 24.0.1, SVG Export Plug-In . SVG Version: 6.00 Build 0)  -->
<svg version="1.1" id="Layer_1" xmlns="http://www.w3.org/2000/svg" xmlns:xlink="http://www.w3.org/1999/xlink" x="0px" y="0px"
	 viewBox="0 0 250 250" style="enable-background:new 0 0 250 250;" xml:space="preserve">
<path class="st0" d="M146.6,46.2c-4.5-7.2-12.2-11.4-20.6-11.4s-16.1,4.3-20.6,11.4L24.1,176.6c-2.4,3.8-3.6,8.2-3.6,12.8
	c0,13.4,10.9,24.2,24.2,24.2h162.6c13.4,0,24.2-10.9,24.2-24.2c0-4.5-1.3-9-3.6-12.8L146.6,46.2z M134.1,180.7h-16.2v-16.2h16.2
	V180.7z M134.1,148.4h-16.2V91.3h16.2V148.4z"/>
</svg>
